lab4/mytbsignals.vcd
$date
	Thu Dec  2 13:48:09 2021
$end
$version
	GTKWave Analyzer v3.3.109 (w)1999-2020 BSI
$end
$timescale
	1ps
$end
$scope module cpu_tb $end
$var wire 32 ( rdB[31:0] $end
$var wire 32 ' rdA[31:0] $end
$var reg 1 & clock $end
$var reg 4 # op[3:0] $end
$var reg 5 $ raA[4:0] $end
$var reg 5 % raB[4:0] $end
$var reg 1 ) reset $end
$var reg 5 * wa[4:0] $end
$var integer 32 " i $end
$upscope $end
$enddefinitions $end
#0
$dumpvars
0)
bx "
bx #
bx (
bx '
bx *
bx %
bx $
1&
$end
#5000
0&
#10000
1&
#15000
0&
#20000
1&
#25000
0&
#30000
1&
#35000
0&
#40000
1&
1)
b100000 "
#45000
0&
#50000
1&
b0 "
b10 #
#55000
0&
#60000
1&
b1 "
b0 '
b11111 (
b0 $
b0 *
b11111 %
#65000
0&
#70000
1&
b11110 %
b1 '
b10 "
b1 *
b11110 (
b1 $
#75000
b11111 '
0&
#80000
1&
b10 '
b10 $
b11101 %
b11101 (
b11 "
b10 *
#85000
0&
b11111 '
#90000
b11 '
1&
b11 $
b11 *
b100 "
b11100 %
b11100 (
#95000
b11111 '
0&
#100000
1&
b100 '
b100 $
b11011 (
b11011 %
b100 *
b101 "
#105000
0&
b11111 '
#110000
b101 '
1&
b101 $
b110 "
b101 *
b11010 (
b11010 %
#115000
b11111 '
0&
#120000
1&
b110 '
b110 $
b11001 %
b11001 (
b111 "
b110 *
#125000
0&
b11111 '
#130000
b111 '
1&
b111 $
b111 *
b1000 "
b11000 %
b11000 (
#135000
b11111 '
0&
#140000
1&
b1000 '
b1000 $
b10111 (
b10111 %
b1000 *
b1001 "
#145000
0&
b11111 '
#150000
b1001 '
1&
b1001 $
b1010 "
b1001 *
b10110 (
b10110 %
#155000
b11111 '
0&
#160000
1&
b1010 '
b1010 $
b10101 %
b10101 (
b1011 "
b1010 *
#165000
0&
b11111 '
#170000
b1011 '
1&
b1011 $
b1011 *
b1100 "
b10100 %
b10100 (
#175000
b11111 '
0&
#180000
1&
b1100 '
b1100 $
b10011 (
b10011 %
b1100 *
b1101 "
#185000
0&
b11111 '
#190000
b1101 '
1&
b1101 $
b1110 "
b1101 *
b10010 (
b10010 %
#195000
b11111 '
0&
#200000
1&
b1110 '
b1110 $
b10001 %
b10001 (
b1111 "
b1110 *
#205000
0&
b11111 '
#210000
b1111 '
1&
b1111 $
b1111 *
b10000 "
b10000 %
b10000 (
#215000
b11111 '
0&
#220000
1&
b10000 '
b10000 $
b11111 (
b1111 %
b10000 *
b10001 "
#225000
0&
b101111 '
#230000
b10001 '
1&
b10001 $
b10010 "
b10001 *
b1110 %
#235000
b110000 '
0&
#240000
1&
b10010 '
b10010 $
b1101 %
b10010 *
b10011 "
#245000
0&
b110001 '
#250000
b10011 '
1&
b10011 $
b10100 "
b10011 *
b1100 %
#255000
b110010 '
0&
#260000
1&
b10100 '
b10100 $
b1011 %
b10100 *
b10101 "
#265000
0&
b110011 '
#270000
b10101 '
1&
b10101 $
b10110 "
b10101 *
b1010 %
#275000
b110100 '
0&
#280000
1&
b10110 '
b10110 $
b1001 %
b10110 *
b10111 "
#285000
0&
b110101 '
#290000
b10111 '
1&
b10111 $
b11000 "
b10111 *
b1000 %
#295000
b110110 '
0&
#300000
1&
b11000 '
b11000 $
b111 %
b11000 *
b11001 "
#305000
0&
b110111 '
#310000
b11001 '
1&
b11001 $
b11010 "
b11001 *
b110 %
#315000
b111000 '
0&
#320000
1&
b11010 '
b11010 $
b101 %
b11010 *
b11011 "
#325000
0&
b111001 '
#330000
b11011 '
1&
b11011 $
b11100 "
b11011 *
b100 %
#335000
b111010 '
0&
#340000
1&
b11100 '
b11100 $
b11 %
b11100 *
b11101 "
#345000
0&
b111011 '
#350000
b11101 '
1&
b11101 $
b11110 "
b11101 *
b10 %
#355000
b111100 '
0&
#360000
1&
b11110 '
b11110 $
b1 %
b11110 *
b11111 "
#365000
0&
b111101 '
#370000
b11111 '
1&
b11111 $
b0 #
b0 "
b0 *
b0 (
b0 %
#375000
0&
#380000
1&
b11111 %
b0 '
b0 $
b11111 (
b1 "
#385000
0&
#390000
1&
b10 "
b11111 '
b11110 %
b111101 (
b1 $
b1 *
#395000
b11101 '
0&
#400000
1&
b11111 '
b10 *
b11 "
b10 $
b11101 %
b111100 (
#405000
0&
b11100 '
#410000
b11111 '
1&
b11 *
b111011 (
b11100 %
b100 "
b11 $
#415000
b11011 '
0&
#420000
1&
b11111 '
b100 *
b100 $
b101 "
b111010 (
b11011 %
#425000
0&
b11010 '
#430000
b11111 '
1&
b101 *
b11010 %
b111001 (
b101 $
b110 "
#435000
b11001 '
0&
#440000
1&
b11111 '
b110 *
b111 "
b110 $
b11001 %
b111000 (
#445000
0&
b11000 '
#450000
b11111 '
1&
b111 *
b110111 (
b11000 %
b1000 "
b111 $
#455000
b10111 '
0&
#460000
1&
b11111 '
b1000 *
b1000 $
b1001 "
b110110 (
b10111 %
#465000
0&
b10110 '
#470000
b11111 '
1&
b1001 *
b10110 %
b110101 (
b1001 $
b1010 "
#475000
b10101 '
0&
#480000
1&
b11111 '
b1010 *
b1011 "
b1010 $
b10101 %
b110100 (
#485000
0&
b10100 '
#490000
b11111 '
1&
b1011 *
b110011 (
b10100 %
b1100 "
b1011 $
#495000
b10011 '
0&
#500000
1&
b11111 '
b1100 *
b1100 $
b1101 "
b110010 (
b10011 %
#505000
0&
b10010 '
#510000
b11111 '
1&
b1101 *
b10010 %
b110001 (
b1101 $
b1110 "
#515000
b10001 '
0&
#520000
1&
b11111 '
b1110 *
b1111 "
b1110 $
b10001 %
b110000 (
#525000
0&
b10000 '
#530000
b11111 '
1&
b1111 *
b101111 (
b10000 %
b10000 "
b1111 $
#535000
b1111 '
0&
#540000
1&
b101111 '
b10000 *
b10000 $
b10001 "
b1111 (
b1111 %
#545000
0&
b1111 '
#550000
b110000 '
1&
b10001 *
b1110 %
b10000 (
b10001 $
b10010 "
#555000
b10000 '
0&
#560000
1&
b110001 '
b10010 *
b10011 "
b10010 $
b1101 %
b10001 (
#565000
0&
b10001 '
#570000
b110010 '
1&
b10011 *
b10010 (
b1100 %
b10100 "
b10011 $
#575000
b10010 '
0&
#580000
1&
b110011 '
b10100 *
b10100 $
b10101 "
b10011 (
b1011 %
#585000
0&
b10011 '
#590000
b110100 '
1&
b10101 *
b1010 %
b10100 (
b10101 $
b10110 "
#595000
b10100 '
0&
#600000
1&
b110101 '
b10110 *
b10111 "
b10110 $
b1001 %
b10101 (
#605000
0&
b10101 '
#610000
b110110 '
1&
b10111 *
b10110 (
b1000 %
b11000 "
b10111 $
#615000
b10110 '
0&
#620000
1&
b110111 '
b11000 *
b11000 $
b11001 "
b10111 (
b111 %
#625000
0&
b10111 '
#630000
b111000 '
1&
b11001 *
b110 %
b11000 (
b11001 $
b11010 "
#635000
b11000 '
0&
#640000
1&
b111001 '
b11010 *
b11011 "
b11010 $
b101 %
b11001 (
#645000
0&
b11001 '
#650000
b111010 '
1&
b11011 *
b11010 (
b100 %
b11100 "
b11011 $
#655000
b11010 '
0&
#660000
1&
b111011 '
b11100 *
b11100 $
b11101 "
b11011 (
b11 %
#665000
0&
b11011 '
#670000
b111100 '
1&
b11101 *
b10 %
b11100 (
b11101 $
b11110 "
#675000
b11100 '
0&
#680000
1&
b111101 '
b11110 *
b11111 "
b11110 $
b1 %
b11101 (
#685000
0&
b11101 '
#690000
b11111 '
1&
b11111 *
b1 #
b0 (
b0 %
b0 "
b11111 $
#695000
0&
#700000
1&
b0 $
b0 '
b0 *
b1 "
b11111 (
b11111 %
#705000
0&
#710000
1&
b11110 %
b11101 '
b1 $
b11101 (
b1 *
b10 "
#715000
0&
#720000
1&
b11 "
b11100 '
b11101 %
b10 *
b10 $
b11100 (
#725000
0&
#730000
1&
b11011 (
b11011 '
b100 "
b11 $
b11100 %
b11 *
#735000
0&
#740000
1&
b100 *
b11010 '
b11010 (
b11011 %
b101 "
b100 $
#745000
0&
#750000
1&
b101 $
b11001 '
b101 *
b110 "
b11001 (
b11010 %
#755000
0&
#760000
1&
b11001 %
b11000 '
b110 $
b11000 (
b110 *
b111 "
#765000
0&
#770000
1&
b1000 "
b10111 '
b11000 %
b111 *
b111 $
b10111 (
#775000
0&
#780000
1&
b10110 (
b10110 '
b1001 "
b1000 $
b10111 %
b1000 *
#785000
0&
#790000
1&
b1001 *
b10101 '
b10101 (
b10110 %
b1010 "
b1001 $
#795000
0&
#800000
1&
b1010 $
b10100 '
b1010 *
b1011 "
b10100 (
b10101 %
#805000
0&
#810000
1&
b10100 %
b10011 '
b1011 $
b10011 (
b1011 *
b1100 "
#815000
0&
#820000
1&
b1101 "
b10010 '
b10011 %
b1100 *
b1100 $
b10010 (
#825000
0&
#830000
1&
b10001 (
b10001 '
b1110 "
b1101 $
b10010 %
b1101 *
#835000
0&
#840000
1&
b1110 *
b10000 '
b10000 (
b10001 %
b1111 "
b1110 $
#845000
0&
#850000
1&
b1111 $
b1111 '
b1111 *
b10000 "
b1111 (
b10000 %
#855000
0&
#860000
1&
b1111 %
b10000 $
b10000 *
b10001 "
#865000
0&
#870000
1&
b10010 "
b10000 '
b1110 %
b10001 *
b10000 (
b10001 $
#875000
0&
#880000
1&
b10010 $
b10001 '
b10011 "
b10001 (
b1101 %
b10010 *
#885000
0&
#890000
1&
b10011 *
b10010 '
b10011 $
b1100 %
b10100 "
b10010 (
#895000
0&
#900000
1&
b10011 (
b10011 '
b10100 *
b10101 "
b10100 $
b1011 %
#905000
0&
#910000
1&
b1010 %
b10100 '
b10100 (
b10101 $
b10101 *
b10110 "
#915000
0&
#920000
1&
b10111 "
b10101 '
b1001 %
b10110 *
b10101 (
b10110 $
#925000
0&
#930000
1&
b10111 $
b10110 '
b11000 "
b10110 (
b1000 %
b10111 *
#935000
0&
#940000
1&
b11000 *
b10111 '
b11000 $
b111 %
b11001 "
b10111 (
#945000
0&
#950000
1&
b11000 (
b11000 '
b11001 *
b11010 "
b11001 $
b110 %
#955000
0&
#960000
1&
b101 %
b11001 '
b11001 (
b11010 $
b11010 *
b11011 "
#965000
0&
#970000
1&
b11100 "
b11010 '
b100 %
b11011 *
b11010 (
b11011 $
#975000
0&
#980000
1&
b11100 $
b11011 '
b11101 "
b11011 (
b11 %
b11100 *
#985000
0&
#990000
1&
b11101 *
b11100 '
b11101 $
b10 %
b11110 "
b11100 (
#995000
0&
#1000000
1&
b11101 (
b11101 '
b11110 *
b11111 "
b11110 $
b1 %
#1005000
0&
#1010000
1&
b0 %
b11111 '
b110 #
b0 (
b11111 $
b11111 *
b0 "
#1015000
0&
#1020000
1&
b1 "
b11111 %
b0 '
b0 *
b11111 (
b0 $
#1025000
0&
#1030000
1&
b1 $
b11110 %
b10 "
b11101 (
b11101 '
b1 *
#1035000
0&
b0 '
#1040000
b11100 '
b10 *
b11101 %
b10 $
1&
b11 "
b11100 (
#1045000
b0 '
0&
#1050000
1&
b11011 (
b11100 %
b11 *
b11011 '
b11 $
b100 "
#1055000
0&
b0 '
#1060000
b11010 '
b101 "
b11011 %
b11010 (
1&
b100 *
b100 $
#1065000
b0 '
0&
#1070000
1&
b101 $
b11010 %
b110 "
b11001 '
b11001 (
b101 *
#1075000
0&
b0 '
#1080000
b11000 '
b110 *
b11001 %
b110 $
1&
b111 "
b11000 (
#1085000
b0 '
0&
#1090000
1&
b10111 (
b11000 %
b111 *
b10111 '
b111 $
b1000 "
#1095000
0&
b0 '
#1100000
b10110 '
b1001 "
b10111 %
b10110 (
1&
b1000 *
b1000 $
#1105000
b0 '
0&
#1110000
1&
b1001 $
b10110 %
b1010 "
b10101 '
b10101 (
b1001 *
#1115000
0&
b0 '
#1120000
b10100 '
b1010 *
b10101 %
b1010 $
1&
b1011 "
b10100 (
#1125000
b0 '
0&
#1130000
1&
b10011 (
b10100 %
b1011 *
b10011 '
b1011 $
b1100 "
#1135000
0&
b0 '
#1140000
b10010 '
b1101 "
b10011 %
b10010 (
1&
b1100 *
b1100 $
#1145000
b0 '
0&
#1150000
1&
b1101 $
b10010 %
b1110 "
b10001 '
b10001 (
b1101 *
#1155000
0&
b0 '
#1160000
b10000 '
b1110 *
b10001 %
b1110 $
1&
b1111 "
b10000 (
#1165000
b0 '
0&
#1170000
1&
b1111 (
b10000 %
b1111 *
b1111 '
b1111 $
b10000 "
#1175000
0&
b0 '
#1180000
b1111 '
b10001 "
b1111 %
b0 (
1&
b10000 *
b10000 $
#1185000
0&
#1190000
1&
b1110 %
b10000 '
b10010 "
b10001 $
b10001 *
#1195000
0&
#1200000
1&
b10010 *
b10001 '
b1101 %
b10010 $
b10011 "
#1205000
0&
#1210000
1&
b10100 "
b10010 '
b10011 *
b10011 $
b1100 %
#1215000
0&
#1220000
1&
b1011 %
b10011 '
b10101 "
b10100 $
b10100 *
#1225000
0&
#1230000
1&
b10101 *
b10100 '
b1010 %
b10101 $
b10110 "
#1235000
0&
#1240000
1&
b10111 "
b10101 '
b10110 *
b10110 $
b1001 %
#1245000
0&
#1250000
1&
b1000 %
b10110 '
b11000 "
b10111 $
b10111 *
#1255000
0&
#1260000
1&
b11000 *
b10111 '
b111 %
b11000 $
b11001 "
#1265000
0&
#1270000
1&
b11010 "
b11000 '
b11001 *
b11001 $
b110 %
#1275000
0&
#1280000
1&
b101 %
b11001 '
b11011 "
b11010 $
b11010 *
#1285000
0&
#1290000
1&
b11011 *
b11010 '
b100 %
b11011 $
b11100 "
#1295000
0&
#1300000
1&
b11101 "
b11011 '
b11100 *
b11100 $
b11 %
#1305000
0&
#1310000
1&
b10 %
b11100 '
b11110 "
b11101 $
b11101 *
#1315000
0&
#1320000
1&
b11110 *
b11101 '
b1 %
b11110 $
b11111 "
#1325000
0&
#1330000
1&
b0 "
b11111 '
b111 #
b11111 *
b11111 $
b0 %
#1335000
0&
b0 '
#1340000
1&
b1 "
b11111 %
b0 $
b0 *
#1345000
0&
#1350000
1&
b1 *
b10 "
b1 $
b11101 (
b11110 %
#1355000
b1 '
0&
#1360000
1&
b0 '
b10 *
b11101 %
b11100 (
b11 "
b10 $
#1365000
0&
b1 '
#1370000
b0 '
1&
b11 *
b11 $
b100 "
b11100 %
b11011 (
#1375000
b1 '
0&
#1380000
1&
b0 '
b100 *
b11010 (
b11011 %
b100 $
b101 "
#1385000
0&
b1 '
#1390000
b0 '
1&
b101 *
b110 "
b101 $
b11001 (
b11010 %
#1395000
b1 '
0&
#1400000
1&
b0 '
b110 *
b11001 %
b11000 (
b111 "
b110 $
#1405000
0&
b1 '
#1410000
b0 '
1&
b111 *
b111 $
b1000 "
b11000 %
b10111 (
#1415000
b1 '
0&
#1420000
1&
b0 '
b1000 *
b10110 (
b10111 %
b1000 $
b1001 "
#1425000
0&
b1 '
#1430000
b0 '
1&
b1001 *
b1010 "
b1001 $
b10101 (
b10110 %
#1435000
b1 '
0&
#1440000
1&
b0 '
b1010 *
b10101 %
b10100 (
b1011 "
b1010 $
#1445000
0&
b1 '
#1450000
b0 '
1&
b1011 *
b1011 $
b1100 "
b10100 %
b10011 (
#1455000
b1 '
0&
#1460000
1&
b0 '
b1100 *
b10010 (
b10011 %
b1100 $
b1101 "
#1465000
0&
b1 '
#1470000
b0 '
1&
b1101 *
b1110 "
b1101 $
b10001 (
b10010 %
#1475000
b1 '
0&
#1480000
1&
b0 '
b1110 *
b10001 %
b10000 (
b1111 "
b1110 $
#1485000
0&
b1 '
#1490000
b0 '
1&
b1111 *
b1111 $
b10000 "
b10000 %
b1111 (
#1495000
b1 '
0&
#1500000
1&
b1111 '
b10000 *
b1 (
b1111 %
b10000 $
b10001 "
#1505000
0&
b0 '
#1510000
b10000 '
1&
b10001 *
b10010 "
b10001 $
b1110 %
#1515000
b0 '
0&
#1520000
1&
b10001 '
b10010 *
b1101 %
b10010 $
b10011 "
#1525000
0&
b0 '
#1530000
b10010 '
1&
b10011 *
b10100 "
b10011 $
b1100 %
#1535000
b0 '
0&
#1540000
1&
b10011 '
b10100 *
b1011 %
b10100 $
b10101 "
#1545000
0&
b0 '
#1550000
b10100 '
1&
b10101 *
b10110 "
b10101 $
b1010 %
#1555000
b0 '
0&
#1560000
1&
b10101 '
b10110 *
b1001 %
b10110 $
b10111 "
#1565000
0&
b0 '
#1570000
b10110 '
1&
b10111 *
b11000 "
b10111 $
b1000 %
#1575000
b0 '
0&
#1580000
1&
b10111 '
b11000 *
b111 %
b11000 $
b11001 "
#1585000
0&
b0 '
#1590000
b11000 '
1&
b11001 *
b11010 "
b11001 $
b110 %
#1595000
b0 '
0&
#1600000
1&
b11001 '
b11010 *
b101 %
b11010 $
b11011 "
#1605000
0&
b0 '
#1610000
b11010 '
1&
b11011 *
b11100 "
b11011 $
b100 %
#1615000
b0 '
0&
#1620000
1&
b11011 '
b11100 *
b11 %
b11100 $
b11101 "
#1625000
0&
b0 '
#1630000
b11100 '
1&
b11101 *
b11110 "
b11101 $
b10 %
#1635000
b0 '
0&
#1640000
1&
b11101 '
b11110 *
b1 %
b11110 $
b11111 "
#1645000
0&
b0 '
#1650000
1&
b11111 *
b1100 #
b0 "
b11111 $
b0 (
b0 %
#1655000
0&
b11111111111111111111111111111111 '
#1660000
b0 '
1&
b11111 %
b0 *
b11111111111111111111111111111111 (
b1 "
b0 $
#1665000
0&
#1670000
1&
b1 $
b1 '
b11110 %
b10 "
b1 *
b0 (
#1675000
b11111111111111111111111111111110 '
0&
#1680000
1&
b1 '
b10 $
b10 *
b11101 %
b11 "
#1685000
b11111111111111111111111111111110 '
0&
#1690000
1&
b1 '
b100 "
b11100 %
b11 $
b11 *
#1695000
b11111111111111111111111111111110 '
0&
#1700000
1&
b1 '
b100 *
b100 $
b101 "
b11011 %
#1705000
b11111111111111111111111111111110 '
0&
#1710000
1&
b1 '
b11010 %
b110 "
b101 *
b101 $
#1715000
b11111111111111111111111111111110 '
0&
#1720000
1&
b1 '
b110 $
b110 *
b11001 %
b111 "
#1725000
b11111111111111111111111111111110 '
0&
#1730000
1&
b1 '
b1000 "
b11000 %
b111 $
b111 *
#1735000
b11111111111111111111111111111110 '
0&
#1740000
1&
b1 '
b1000 *
b1000 $
b1001 "
b10111 %
#1745000
b11111111111111111111111111111110 '
0&
#1750000
1&
b1 '
b10110 %
b1010 "
b1001 *
b1001 $
#1755000
b11111111111111111111111111111110 '
0&
#1760000
1&
b1 '
b1010 $
b1010 *
b10101 %
b1011 "
#1765000
b11111111111111111111111111111110 '
0&
#1770000
1&
b1 '
b1100 "
b10100 %
b1011 $
b1011 *
#1775000
b11111111111111111111111111111110 '
0&
#1780000
1&
b1 '
b1100 *
b1100 $
b1101 "
b10011 %
#1785000
b11111111111111111111111111111110 '
0&
#1790000
1&
b1 '
b10010 %
b1110 "
b1101 *
b1101 $
#1795000
b11111111111111111111111111111110 '
0&
#1800000
1&
b1 '
b1110 $
b1110 *
b10001 %
b1111 "
#1805000
b11111111111111111111111111111110 '
0&
#1810000
1&
b1 '
b10000 "
b10000 %
b1111 $
b1111 *
#1815000
b11111111111111111111111111111110 '
0&
#1820000
1&
b0 '
b11111111111111111111111111111110 (
b10000 *
b10000 $
b10001 "
b1111 %
#1825000
0&
b1 '
#1830000
b0 '
1&
b1110 %
b10010 "
b10001 *
b10001 $
#1835000
0&
b1 '
#1840000
b0 '
1&
b10010 $
b10010 *
b1101 %
b10011 "
#1845000
0&
b1 '
#1850000
b0 '
1&
b10100 "
b1100 %
b10011 $
b10011 *
#1855000
0&
b1 '
#1860000
b0 '
1&
b10100 *
b10100 $
b10101 "
b1011 %
#1865000
0&
b1 '
#1870000
b0 '
1&
b1010 %
b10110 "
b10101 *
b10101 $
#1875000
0&
b1 '
#1880000
b0 '
1&
b10110 $
b10110 *
b1001 %
b10111 "
#1885000
0&
b1 '
#1890000
b0 '
1&
b11000 "
b1000 %
b10111 $
b10111 *
#1895000
0&
b1 '
#1900000
b0 '
1&
b11000 *
b11000 $
b11001 "
b111 %
#1905000
0&
b1 '
#1910000
b0 '
1&
b110 %
b11010 "
b11001 *
b11001 $
#1915000
0&
b1 '
#1920000
b0 '
1&
b11010 $
b11010 *
b101 %
b11011 "
#1925000
0&
b1 '
#1930000
b0 '
1&
b11100 "
b100 %
b11011 $
b11011 *
#1935000
0&
b1 '
#1940000
b0 '
1&
b11100 *
b11100 $
b11101 "
b11 %
#1945000
0&
b1 '
#1950000
b0 '
1&
b10 %
b11110 "
b11101 *
b11101 $
#1955000
0&
b1 '
#1960000
b0 '
1&
b11110 $
b11110 *
b1 %
b11111 "
#1965000
0&
b1 '
#1970000
b11111111111111111111111111111111 '
1&
b0 (
b100000 "
b0 %
b11111 $
b11111 *
#1975000
b0 '
0&
#1980000
1&
#1985000
0&
b11111111111111111111111111111111 '
